Version 4
SHEET 1 880 680
WIRE 352 16 192 16
WIRE 192 32 192 16
WIRE 144 96 80 96
WIRE 192 128 192 112
WIRE 352 176 192 176
WIRE 192 192 192 176
WIRE 144 256 80 256
WIRE 192 288 192 272
FLAG 192 128 0
FLAG 192 288 0
FLAG 80 96 re
IOPIN 80 96 In
FLAG 80 256 im
IOPIN 80 256 In
FLAG 352 16 module
IOPIN 352 16 Out
FLAG 352 176 arg
IOPIN 352 176 Out
SYMBOL bv 192 16 R0
SYMATTR InstName B1
SYMATTR Value V=hypot(V(im),V(re))
SYMBOL bv 192 176 R0
SYMATTR InstName B2
SYMATTR Value V=atan2(V(im),V(re))
